Recolocar_Telefone ,5,,2:59:57 AM,4/19/2022,
FlexFlow Erro de Rota!!! ,5005,123103_ZF523RB2RJ,4:16:19 AM,4/19/2022,
FlexFlow Erro de Rota!!! ,5005,123178_ZF523RBCSF,6:25:58 AM,4/19/2022,
Cortina 1 ,101,123193_ZF523RC2W5,9:30:34 AM,4/19/2022,
Cortina 1 ,101,123299_ZF523RC2K9,1:36:55 PM,4/19/2022,
Cortina 1 ,101,123301_ZF523RC2T3,1:38:20 PM,4/19/2022,
Recolocar_Telefone ,5,,2:04:30 PM,4/19/2022,
FlexFlow Erro de Rota!!! ,5005,123343_ZF523RC2NM,2:10:08 PM,4/19/2022,
FlexFlow Erro de Rota!!! ,5005,123345_ZF523RC2NT,2:13:21 PM,4/19/2022,
FlexFlow Erro de Rota!!! ,5005,123375_ZF523RC2MB,2:39:28 PM,4/19/2022,
Property Node (arg 1) in tempoexposicao.vi->Main_esteira.vi ,-1074360316,123380_ZF523RC2C9,3:20:37 PM,4/19/2022,
Recolocar_Telefone ,5,,3:37:35 PM,4/19/2022,
Recolocar_Telefone ,5,,3:44:32 PM,4/19/2022,
Recolocar_Telefone ,5,,3:53:31 PM,4/19/2022,
Read from Text File in readtxt.vi->Main_esteira.vi<APPEND>
C:\Users\FIT_BACKEND\Desktop\AVI1.0 - v2\Java_Flamingo_teste.txt ,7,123459_ZF523RGN9P,5:08:46 PM,4/19/2022,
Read from Text File in readtxt.vi->Main_esteira.vi<APPEND>
C:\Users\FIT_BACKEND\Desktop\AVI1.0 - v2\Java_Flamingo_teste.txt ,7,123460_ZF523RGNBJ,5:09:07 PM,4/19/2022,
Read from Text File in readtxt.vi->Main_esteira.vi<APPEND>
C:\Users\FIT_BACKEND\Desktop\AVI1.0 - v2\Java_Flamingo_teste.txt ,7,123461_ZF523RGNBJ,5:09:27 PM,4/19/2022,
Read from Text File in readtxt.vi->Main_esteira.vi<APPEND>
C:\Users\FIT_BACKEND\Desktop\AVI1.0 - v2\Java_Flamingo_teste.txt ,7,123462_ZF523RGNBJ,5:09:52 PM,4/19/2022,
Botoeira 1 ,100,123546_ZF523RV929,9:04:24 PM,4/19/2022,
Botoeira 1 ,100,,9:04:34 PM,4/19/2022,
Botoeira 1 ,100,,9:04:38 PM,4/19/2022,
Botoeira 1 ,100,,9:05:07 PM,4/19/2022,
