Robot Error ,0,99631_ZF523QBGNR,7:56:27 AM,3/3/2022,
Recolocar_Telefone ,5,,8:25:27 AM,3/3/2022,
Cortina 2 ,103,99717_ZF523QBZL7,9:26:19 AM,3/3/2022,
Recolocar_Telefone ,5,,10:18:05 AM,3/3/2022,
Cortina 2 ,103,99876_ZF523QBZHJ,11:14:38 AM,3/3/2022,
Cortina 1 ,101,99879_ZF523QBZHV,11:16:51 AM,3/3/2022,
Cortina 2 ,103,99901_ZF523QBZG3,11:27:08 AM,3/3/2022,
Cortina 1 ,101,99950_ZF523QBZDW,11:54:36 AM,3/3/2022,
Cortina 1 ,101,99952_ZF523QCCBS,11:55:45 AM,3/3/2022,
Cortina 2 ,103,99960_ZF523QCDQ4,12:00:20 PM,3/3/2022,
Cortina 1 ,101,99973_ZF523QBZ46,12:08:34 PM,3/3/2022,
Robot Error ,0,99989_ZF523QBZ83,12:17:22 PM,3/3/2022,
Cortina 1 ,101,100014_ZF523QCCKP,12:37:25 PM,3/3/2022,
Robot Error ,0,100017_ZF523QBZC4,12:38:50 PM,3/3/2022,
Cortina 2 ,103,100035_ZF523QBZHQ,2:12:51 PM,3/3/2022,
Cortina 1 ,101,100089_ZF523QCDVG,2:38:23 PM,3/3/2022,
Cortina 2 ,103,100111_ZF523QCCKC,3:15:41 PM,3/3/2022,
Recolocar_Telefone ,5,,3:25:39 PM,3/3/2022,
Recolocar_Telefone ,5,100138_ZF523QCCWV,3:54:22 PM,3/3/2022,
Recolocar_Telefone ,5,,3:55:00 PM,3/3/2022,
Recolocar_Telefone ,5,,3:59:31 PM,3/3/2022,
Recolocar_Telefone ,5,,4:00:59 PM,3/3/2022,
Recolocar_Telefone ,5,,4:02:00 PM,3/3/2022,
Recolocar_Telefone ,5,,4:33:03 PM,3/3/2022,
Botoeira 1 ,100,100165_ZF523QCD27,5:39:33 PM,3/3/2022,
