IMAQdx Open Camera.vi ,-1074360311,,10:00:39 AM,3/9/2022,
IMAQdx Open Camera.vi ,-1074360311,,10:00:48 AM,3/9/2022,
IMAQdx Open Camera.vi ,-1074360311,,10:01:22 AM,3/9/2022,
IMAQdx Open Camera.vi ,-1074360311,,10:01:39 AM,3/9/2022,
