Cortina 1 ,101,114408_ZF523R2R5H,12:22:04 AM,3/23/2022,
Cortina 1 ,101,114712_ZF523R3F43,3:24:27 AM,3/23/2022,
Cortina 1 ,101,114736_ZF523R3H64,3:33:29 AM,3/23/2022,
Robot Error ,0,114767_ZF523R373D,3:44:49 AM,3/23/2022,
Cortina 1 ,101,114768_ZF523R373D,3:45:17 AM,3/23/2022,
Recolocar_Telefone ,5,115084_ZF523R2WVZ,6:13:32 AM,3/23/2022,
Recolocar_Telefone ,5,,6:13:50 AM,3/23/2022,
Robot Error ,0,115095_ZF523R3QXQ,6:18:26 AM,3/23/2022,
Cortina 1 ,101,115129_ZF523R3NFV,2:11:52 PM,3/23/2022,
Cortina 1 ,101,115130_ZF523R4K36,2:28:34 PM,3/23/2022,
IMAQdx Open Camera.vi ,-1074360310,,2:38:45 PM,3/23/2022,
IMAQdx Open Camera.vi ,-1074360310,,2:38:49 PM,3/23/2022,
Recolocar_Telefone ,5,115212_ZF523R4GD5,3:39:22 PM,3/23/2022,
Recolocar_Telefone ,5,,3:40:42 PM,3/23/2022,
Cortina 1 ,101,115286_ZF523R4R6R,4:11:35 PM,3/23/2022,
Recolocar_Telefone ,5,,4:17:52 PM,3/23/2022,
Recolocar_Telefone ,5,,4:23:09 PM,3/23/2022,
Recolocar_Telefone ,5,,4:25:42 PM,3/23/2022,
Recolocar_Telefone ,5,,4:26:27 PM,3/23/2022,
Recolocar_Telefone ,5,,4:34:07 PM,3/23/2022,
Recolocar_Telefone ,5,,4:56:32 PM,3/23/2022,
Recolocar_Telefone ,5,,4:57:29 PM,3/23/2022,
Recolocar_Telefone ,5,,4:57:54 PM,3/23/2022,
Recolocar_Telefone ,5,,6:10:08 PM,3/23/2022,
Recolocar_Telefone ,5,,6:14:42 PM,3/23/2022,
Recolocar_Telefone ,5,,8:35:51 PM,3/23/2022,
FlexFlow Erro de Rota!!! ,5005,115843_ZF523R49DB,8:42:07 PM,3/23/2022,
Recolocar_Telefone ,5,,8:45:58 PM,3/23/2022,
Recolocar_Telefone ,5,,8:47:11 PM,3/23/2022,
Recolocar_Telefone ,5,,8:50:09 PM,3/23/2022,
Recolocar_Telefone ,5,,9:07:21 PM,3/23/2022,
FlexFlow Erro de Rota!!! ,5005,115921_ZF523R4C6M,9:11:13 PM,3/23/2022,
Recolocar_Telefone ,5,,9:23:20 PM,3/23/2022,
Recolocar_Telefone ,5,,9:30:55 PM,3/23/2022,
Recolocar_Telefone ,5,,9:40:43 PM,3/23/2022,
Recolocar_Telefone ,5,116054_ZF523R4WK5,9:45:14 PM,3/23/2022,
Recolocar_Telefone ,5,,9:46:25 PM,3/23/2022,
Recolocar_Telefone ,5,,9:54:32 PM,3/23/2022,
Recolocar_Telefone ,5,,9:56:32 PM,3/23/2022,
Recolocar_Telefone ,5,,10:05:41 PM,3/23/2022,
Recolocar_Telefone ,5,,10:11:32 PM,3/23/2022,
