Cortina 1 ,101,100462_ZF523J2G49,9:41:59 AM,3/12/2022,
Cortina 1 ,101,100464_ZF523J2JRQ,9:45:09 AM,3/12/2022,
Cortina 1 ,101,100465_ZF523J2G49,9:50:27 AM,3/12/2022,
Cortina 1 ,101,100466_ZF523J2G49,9:54:37 AM,3/12/2022,
Botoeira 1 ,100,,10:00:13 AM,3/12/2022,
Cortina 1 ,101,100480_ZF523K4XHH,10:31:58 AM,3/12/2022,
Cortina 1 ,101,100494_ZF523HQRQQ,10:37:45 AM,3/12/2022,
Recolocar_Telefone ,5,,10:49:46 AM,3/12/2022,
