Read from Text File in readtxt.vi->Main_esteira.vi<APPEND>
C:\Users\FIT_BACKEND\Desktop\AVI1.0 - v2\.txt ,7,,9:55:41 AM,3/11/2022,
Read from Text File in readtxt.vi->Main_esteira.vi<APPEND>
C:\Users\FIT_BACKEND\Desktop\AVI1.0 - v2\.txt ,7,,9:56:56 AM,3/11/2022,
Read from Text File in readtxt.vi->Main_esteira.vi<APPEND>
C:\Users\FIT_BACKEND\Desktop\AVI1.0 - v2\.txt ,7,,9:57:46 AM,3/11/2022,
Read from Text File in readtxt.vi->Main_esteira.vi<APPEND>
C:\Users\FIT_BACKEND\Desktop\AVI1.0 - v2\.txt ,7,,9:59:25 AM,3/11/2022,
Read from Text File in readtxt.vi->Main_esteira.vi<APPEND>
C:\Users\FIT_BACKEND\Desktop\AVI1.0 - v2\.txt ,7,,9:59:46 AM,3/11/2022,
Read from Text File in readtxt.vi->Main_esteira.vi<APPEND>
C:\Users\FIT_BACKEND\Desktop\AVI1.0 - v2\.txt ,7,,10:03:19 AM,3/11/2022,
Read from Text File in readtxt.vi->Main_esteira.vi<APPEND>
C:\Users\FIT_BACKEND\Desktop\AVI1.0 - v2\.txt ,7,,10:05:26 AM,3/11/2022,
Read from Text File in readtxt.vi->Main_esteira.vi<APPEND>
C:\Users\FIT_BACKEND\Desktop\AVI1.0 - v2\.txt ,7,,10:08:13 AM,3/11/2022,
Cortina 1 ,101,,10:09:15 AM,3/11/2022,
Cortina 1 ,101,100363_ZF523J2JRQ,11:05:25 AM,3/11/2022,
Cortina 1 ,101,100377_ZF523J2JRQ,1:34:38 PM,3/11/2022,
Pressostato ,104,,1:44:32 PM,3/11/2022,
Cortina 1 ,101,,1:45:50 PM,3/11/2022,
Cortina 1 ,101,,1:46:07 PM,3/11/2022,
Cortina 1 ,101,100386_ZF523J2JRQ,1:48:44 PM,3/11/2022,
FlexFlow Erro de Rota!!! ,5005,100396_ZF523HQRQQ,2:22:30 PM,3/11/2022,
FlexFlow Erro de Rota!!! ,5005,100421_ZF523HQRQQ,2:48:32 PM,3/11/2022,
FlexFlow Erro de Rota!!! ,5005,100427_ZF523HQRQQ,2:50:23 PM,3/11/2022,
FlexFlow Erro de Rota!!! ,5005,100428_ZF523J2JRQ,2:55:48 PM,3/11/2022,
FlexFlow Erro de Rota!!! ,5005,100429_ZF523J2G49,3:06:51 PM,3/11/2022,
Cortina 1 ,101,100446_ZF523J2G49,3:47:49 PM,3/11/2022,
FlexFlow Erro de Rota!!! ,5005,100449_ZF523HQRQQ,3:50:38 PM,3/11/2022,
