Cortina 1 ,101,112845_ZF523QXBNV,12:07:32 AM,3/22/2022,
Cortina 1 ,101,113170_ZF523QXBNV,7:51:09 AM,3/22/2022,
Pressostato ,104,,8:20:05 AM,3/22/2022,
Cortina 1 ,101,113171_ZF523R2C58,8:21:45 AM,3/22/2022,
Cortina 1 ,101,113174_ZF523R2C58,8:24:53 AM,3/22/2022,
Pressostato ,104,,8:31:11 AM,3/22/2022,
Cortina 1 ,101,113183_ZF523R2D39,8:38:52 AM,3/22/2022,
Cortina 1 ,101,113210_ZF523R2DP7,8:51:09 AM,3/22/2022,
Cortina 1 ,101,113211_ZF523R2CCN,8:51:46 AM,3/22/2022,
Cortina 1 ,101,113260_ZF523R2DQN,9:18:52 AM,3/22/2022,
Cortina 1 ,101,113303_ZF523R2H8V,9:43:18 AM,3/22/2022,
FlexFlow Erro de Rota!!! ,5005,113351_ZF523R267C,10:14:24 AM,3/22/2022,
Cortina 1 ,101,113415_ZF523R2GNP,11:15:07 AM,3/22/2022,
<JSONErrorMultiple_1.0>[{
    "status": true,
    "code": 8002,
    "source": "Erro no Servidor"
},{
    "status": true,
    "code": 56,
    "source": "LabVIEWHTTPClient.lvlib:GET.vi:390015<APPEND>\n\n<b>Complete call chain:</b>\r\n     LabVIEWHTTPClient.lvlib:GET.vi:390015\r\n     COGNEX_IA_LINK.vi\r\n     Main_esteira.vi"
}] ,8002,113427_ZF523R2HW8,12:26:38 PM,3/22/2022,
<JSONErrorMultiple_1.0>[{
    "status": true,
    "code": 8002,
    "source": "Erro no Servidor"
},{
    "status": true,
    "code": 56,
    "source": "LabVIEWHTTPClient.lvlib:GET.vi:390015<APPEND>\n\n<b>Complete call chain:</b>\r\n     LabVIEWHTTPClient.lvlib:GET.vi:390015\r\n     COGNEX_IA_LINK.vi\r\n     Main_esteira.vi"
}] ,8002,113428_ZF523R2GRW,12:27:30 PM,3/22/2022,
IMAQ Fill Image
   ,-1074396120,,12:27:53 PM,3/22/2022,
Pressostato ,104,,12:33:57 PM,3/22/2022,
Recolocar_Telefone ,5,113429_ZF523QWJH6,12:34:36 PM,3/22/2022,
Cortina 1 ,101,113432_ZF523R2FL2,12:35:49 PM,3/22/2022,
Cortina 1 ,101,113463_ZF523R2HWT,1:01:32 PM,3/22/2022,
Cortina 1 ,101,113482_ZF523QTF2B,1:10:47 PM,3/22/2022,
Cortina 1 ,101,113521_ZF523R2H4P,1:39:07 PM,3/22/2022,
Cortina 1 ,101,113523_ZF523R2H8N,1:40:05 PM,3/22/2022,
FlexFlow Erro de Rota!!! ,5005,113547_ZF523QXBRH,2:05:42 PM,3/22/2022,
Sensor Vaccum Error ,14,113558_ZF523R2FBQ,2:14:26 PM,3/22/2022,
Cortina 1 ,101,113588_ZF523R2H6L,2:49:49 PM,3/22/2022,
Robot Error ,0,113589_ZF523R2GQX,2:50:34 PM,3/22/2022,
Sensor Vaccum Error ,14,113610_ZF523R2V77,3:16:29 PM,3/22/2022,
Recolocar_Telefone ,5,,3:49:14 PM,3/22/2022,
Sensor Vaccum Error ,14,113683_ZF523R2D8R,3:49:54 PM,3/22/2022,
Sensor Vaccum Error ,14,113709_ZF523R2JVX,3:59:06 PM,3/22/2022,
Recolocar_Telefone ,5,,4:09:07 PM,3/22/2022,
Recolocar_Telefone ,5,,4:10:14 PM,3/22/2022,
Recolocar_Telefone ,5,,4:12:35 PM,3/22/2022,
Recolocar_Telefone ,5,,4:25:04 PM,3/22/2022,
Sensor Vaccum Error ,14,113771_ZF523R2GDC,4:26:23 PM,3/22/2022,
<JSONErrorMultiple_1.0>[{
    "status": true,
    "code": 8002,
    "source": "Erro no Servidor"
},{
    "status": true,
    "code": 363514,
    "source": "LabVIEWHTTPClient.lvlib:GET.vi:390015<APPEND>\n\n<b>Complete call chain:</b>\r\n     LabVIEWHTTPClient.lvlib:GET.vi:390015\r\n     COGNEX_IA_LINK.vi\r\n     Main_esteira.vi"
}] ,8002,113772_ZF523R2SX4,4:27:42 PM,3/22/2022,
Cortina 1 ,101,113780_ZF523R2NKD,4:30:30 PM,3/22/2022,
Sensor Vaccum Error ,14,113855_ZF523R2NFH,5:22:43 PM,3/22/2022,
Pressostato ,104,113858_ZF523R2HFF,5:24:35 PM,3/22/2022,
Pressostato ,104,,5:24:43 PM,3/22/2022,
Pressostato ,104,,5:24:45 PM,3/22/2022,
Pressostato ,104,,5:25:17 PM,3/22/2022,
Pressostato ,104,,5:26:30 PM,3/22/2022,
Pressostato ,104,,5:27:04 PM,3/22/2022,
Pressostato ,104,,5:27:07 PM,3/22/2022,
Pressostato ,104,,5:27:16 PM,3/22/2022,
Pressostato ,104,113859_ZF523R2VF6,5:33:22 PM,3/22/2022,
Pressostato ,104,,5:33:38 PM,3/22/2022,
Pressostato ,104,,5:34:56 PM,3/22/2022,
Pressostato ,104,,5:36:07 PM,3/22/2022,
Pressostato ,104,,5:39:22 PM,3/22/2022,
Pressostato ,104,,5:42:07 PM,3/22/2022,
Pressostato ,104,,6:00:49 PM,3/22/2022,
Pressostato ,104,,6:00:53 PM,3/22/2022,
Pressostato ,104,,6:00:55 PM,3/22/2022,
Pressostato ,104,,6:41:41 PM,3/22/2022,
Pressostato ,104,,6:41:45 PM,3/22/2022,
Pressostato ,104,,6:41:55 PM,3/22/2022,
Pressostato ,104,113860_ZF523R2DJD,6:45:16 PM,3/22/2022,
Pressostato ,104,,6:45:27 PM,3/22/2022,
Pressostato ,104,,6:45:39 PM,3/22/2022,
Pressostato ,104,,6:48:22 PM,3/22/2022,
Recolocar_Telefone ,5,,6:52:07 PM,3/22/2022,
Recolocar_Telefone ,5,113873_ZF523R2QMF,6:54:38 PM,3/22/2022,
Recolocar_Telefone ,5,113889_ZF523R2WVD,7:07:29 PM,3/22/2022,
Property Node (arg 1) in grab_subvi2.vi->Main_esteira.vi ,-1074360316,,7:07:47 PM,3/22/2022,
Recolocar_Telefone ,5,,7:08:26 PM,3/22/2022,
Sensor Vaccum Error ,14,113897_ZF523R2H77,7:10:26 PM,3/22/2022,
Recolocar_Telefone ,5,,7:19:37 PM,3/22/2022,
Sensor Vaccum Error ,14,113939_ZF523R34MG,7:31:38 PM,3/22/2022,
Sensor Vaccum Error ,14,113945_ZF523R2X77,7:34:02 PM,3/22/2022,
Recolocar_Telefone ,5,,7:38:02 PM,3/22/2022,
Sensor Vaccum Error ,14,113957_ZF523R2FVB,7:38:47 PM,3/22/2022,
Recolocar_Telefone ,5,,7:41:27 PM,3/22/2022,
Sensor Vaccum Error ,14,113967_ZF523R2W89,7:42:06 PM,3/22/2022,
Recolocar_Telefone ,5,,7:44:14 PM,3/22/2022,
Sensor Vaccum Error ,14,113973_ZF523R2FBH,7:44:57 PM,3/22/2022,
Recolocar_Telefone ,5,,7:46:59 PM,3/22/2022,
Recolocar_Telefone ,5,,9:09:15 PM,3/22/2022,
Recolocar_Telefone ,5,,9:10:15 PM,3/22/2022,
Recolocar_Telefone ,5,114005_ZF523R2QX7,9:11:12 PM,3/22/2022,
Recolocar_Telefone ,5,,9:12:06 PM,3/22/2022,
Sensor Vaccum Error ,14,114026_ZF523R2R4P,9:17:58 PM,3/22/2022,
Recolocar_Telefone ,5,,9:19:26 PM,3/22/2022,
Sensor Vaccum Error ,14,114042_ZF523R355P,9:25:09 PM,3/22/2022,
Sensor Vaccum Error ,14,114055_ZF523R2DD6,9:32:10 PM,3/22/2022,
Sensor Vaccum Error ,14,114058_ZF523R2FBT,9:33:52 PM,3/22/2022,
Sensor Vaccum Error ,14,114062_ZF523R355W,9:35:24 PM,3/22/2022,
Sensor Vaccum Error ,14,114083_ZF523R32SK,9:42:46 PM,3/22/2022,
Sensor Vaccum Error ,14,114091_ZF523R2QRN,9:45:34 PM,3/22/2022,
Recolocar_Telefone ,5,,10:15:59 PM,3/22/2022,
Cortina 1 ,101,114204_ZF523R355X,10:51:44 PM,3/22/2022,
