
    <tr>
      <td>122636</td>
      <td>1108041</td>
      <td>ZF523NZX7M</td>
      <td>SA78D21899</td>
      <td><a href="http://mnsnt066/cqa/teste_mask.php?filename=122636_ZF523NZX7M_2022-4-5_3.bmp&region_id=1108041&model=SA78D21899&p_x=405&p_y=1105&a=4">122636_ZF523NZX7M_2022-4-5_3.bmp</a></td>
      <td>3</td>
      <td>405</td>
      <td>1105</td>
      <td>4</td>
      <td>2022-4-5</td>
    </tr>
    