
    <tr>
      <td>134487</td>
      <td>1225856</td>
      <td>ZF523SC3DV</td>
      <td>SA78D21897</td>
      <td><a href="http://mnsnt066/cqa/teste_mask.php?filename=134487_ZF523SC3DV_2022-5-7_3.bmp&region_id=1225856&model=SA78D21897&p_x=544&p_y=929&a=358">134487_ZF523SC3DV_2022-5-7_3.bmp</a></td>
      <td>3</td>
      <td>544</td>
      <td>929</td>
      <td>358</td>
      <td>2022-5-7</td>
    </tr>
    
    <tr>
      <td>134488</td>
      <td>1225866</td>
      <td>ZF523SC38B</td>
      <td>SA78D21897</td>
      <td><a href="http://mnsnt066/cqa/teste_mask.php?filename=134488_ZF523SC38B_2022-5-7_3.bmp&region_id=1225866&model=SA78D21897&p_x=339&p_y=879&a=357">134488_ZF523SC38B_2022-5-7_3.bmp</a></td>
      <td>3</td>
      <td>339</td>
      <td>879</td>
      <td>357</td>
      <td>2022-5-7</td>
    </tr>
    
    <tr>
      <td>134489</td>
      <td>1225876</td>
      <td>ZF523SC3B8</td>
      <td>SA78D21897</td>
      <td><a href="http://mnsnt066/cqa/teste_mask.php?filename=134489_ZF523SC3B8_2022-5-7_3.bmp&region_id=1225876&model=SA78D21897&p_x=485&p_y=741&a=352">134489_ZF523SC3B8_2022-5-7_3.bmp</a></td>
      <td>3</td>
      <td>485</td>
      <td>741</td>
      <td>352</td>
      <td>2022-5-7</td>
    </tr>
    
    <tr>
      <td>134490</td>
      <td>1225886</td>
      <td>ZF523SC3DJ</td>
      <td>SA78D21897</td>
      <td><a href="http://mnsnt066/cqa/teste_mask.php?filename=134490_ZF523SC3DJ_2022-5-7_3.bmp&region_id=1225886&model=SA78D21897&p_x=263&p_y=1158&a=356">134490_ZF523SC3DJ_2022-5-7_3.bmp</a></td>
      <td>3</td>
      <td>263</td>
      <td>1158</td>
      <td>356</td>
      <td>2022-5-7</td>
    </tr>
    
    <tr>
      <td>134491</td>
      <td>1225896</td>
      <td>ZF523SC38N</td>
      <td>SA78D21897</td>
      <td><a href="http://mnsnt066/cqa/teste_mask.php?filename=134491_ZF523SC38N_2022-5-7_3.bmp&region_id=1225896&model=SA78D21897&p_x=517&p_y=1002&a=359">134491_ZF523SC38N_2022-5-7_3.bmp</a></td>
      <td>3</td>
      <td>517</td>
      <td>1002</td>
      <td>359</td>
      <td>2022-5-7</td>
    </tr>
    
    <tr>
      <td>134492</td>
      <td>1225906</td>
      <td>ZF523SC3K9</td>
      <td>SA78D21897</td>
      <td><a href="http://mnsnt066/cqa/teste_mask.php?filename=134492_ZF523SC3K9_2022-5-7_3.bmp&region_id=1225906&model=SA78D21897&p_x=144&p_y=1031&a=359">134492_ZF523SC3K9_2022-5-7_3.bmp</a></td>
      <td>3</td>
      <td>144</td>
      <td>1031</td>
      <td>359</td>
      <td>2022-5-7</td>
    </tr>
    
    <tr>
      <td>134493</td>
      <td>1225916</td>
      <td>ZF523SC3DJ</td>
      <td>SA78D21897</td>
      <td><a href="http://mnsnt066/cqa/teste_mask.php?filename=134493_ZF523SC3DJ_2022-5-7_3.bmp&region_id=1225916&model=SA78D21897&p_x=354&p_y=922&a=359">134493_ZF523SC3DJ_2022-5-7_3.bmp</a></td>
      <td>3</td>
      <td>354</td>
      <td>922</td>
      <td>359</td>
      <td>2022-5-7</td>
    </tr>
    
    <tr>
      <td>134494</td>
      <td>1225926</td>
      <td>ZF523SC388</td>
      <td>SA78D21897</td>
      <td><a href="http://mnsnt066/cqa/teste_mask.php?filename=134494_ZF523SC388_2022-5-7_3.bmp&region_id=1225926&model=SA78D21897&p_x=390&p_y=1131&a=355">134494_ZF523SC388_2022-5-7_3.bmp</a></td>
      <td>3</td>
      <td>390</td>
      <td>1131</td>
      <td>355</td>
      <td>2022-5-7</td>
    </tr>
    
    <tr>
      <td>134495</td>
      <td>1225936</td>
      <td>ZF523SBVWT</td>
      <td>SA78D21897</td>
      <td><a href="http://mnsnt066/cqa/teste_mask.php?filename=134495_ZF523SBVWT_2022-5-7_3.bmp&region_id=1225936&model=SA78D21897&p_x=672&p_y=1153&a=20">134495_ZF523SBVWT_2022-5-7_3.bmp</a></td>
      <td>3</td>
      <td>672</td>
      <td>1153</td>
      <td>20</td>
      <td>2022-5-7</td>
    </tr>
    
    <tr>
      <td>134497</td>
      <td>1225956</td>
      <td>ZF523SC39R</td>
      <td>SA78D21897</td>
      <td><a href="http://mnsnt066/cqa/teste_mask.php?filename=134497_ZF523SC39R_2022-5-7_3.bmp&region_id=1225956&model=SA78D21897&p_x=1066&p_y=1063&a=13">134497_ZF523SC39R_2022-5-7_3.bmp</a></td>
      <td>3</td>
      <td>1066</td>
      <td>1063</td>
      <td>13</td>
      <td>2022-5-7</td>
    </tr>
    
    <tr>
      <td>134498</td>
      <td>1225966</td>
      <td>ZF523SC39H</td>
      <td>SA78D21897</td>
      <td><a href="http://mnsnt066/cqa/teste_mask.php?filename=134498_ZF523SC39H_2022-5-7_3.bmp&region_id=1225966&model=SA78D21897&p_x=360&p_y=1057&a=1">134498_ZF523SC39H_2022-5-7_3.bmp</a></td>
      <td>3</td>
      <td>360</td>
      <td>1057</td>
      <td>1</td>
      <td>2022-5-7</td>
    </tr>
    
    <tr>
      <td>134499</td>
      <td>1225976</td>
      <td>ZF523SBWW7</td>
      <td>SA78D21897</td>
      <td><a href="http://mnsnt066/cqa/teste_mask.php?filename=134499_ZF523SBWW7_2022-5-7_3.bmp&region_id=1225976&model=SA78D21897&p_x=462&p_y=919&a=357">134499_ZF523SBWW7_2022-5-7_3.bmp</a></td>
      <td>3</td>
      <td>462</td>
      <td>919</td>
      <td>357</td>
      <td>2022-5-7</td>
    </tr>
    
    <tr>
      <td>134500</td>
      <td>1225986</td>
      <td>ZF523SC3N6</td>
      <td>SA78D21897</td>
      <td><a href="http://mnsnt066/cqa/teste_mask.php?filename=134500_ZF523SC3N6_2022-5-7_3.bmp&region_id=1225986&model=SA78D21897&p_x=387&p_y=1086&a=1">134500_ZF523SC3N6_2022-5-7_3.bmp</a></td>
      <td>3</td>
      <td>387</td>
      <td>1086</td>
      <td>1</td>
      <td>2022-5-7</td>
    </tr>
    
    <tr>
      <td>134501</td>
      <td>1225996</td>
      <td>ZF523SC3DF</td>
      <td>SA78D21897</td>
      <td><a href="http://mnsnt066/cqa/teste_mask.php?filename=134501_ZF523SC3DF_2022-5-7_3.bmp&region_id=1225996&model=SA78D21897&p_x=310&p_y=968&a=6">134501_ZF523SC3DF_2022-5-7_3.bmp</a></td>
      <td>3</td>
      <td>310</td>
      <td>968</td>
      <td>6</td>
      <td>2022-5-7</td>
    </tr>
    
    <tr>
      <td>134503</td>
      <td>1226016</td>
      <td>ZF523SBQMX</td>
      <td>SA78D21897</td>
      <td><a href="http://mnsnt066/cqa/teste_mask.php?filename=134503_ZF523SBQMX_2022-5-7_3.bmp&region_id=1226016&model=SA78D21897&p_x=306&p_y=869&a=357">134503_ZF523SBQMX_2022-5-7_3.bmp</a></td>
      <td>3</td>
      <td>306</td>
      <td>869</td>
      <td>357</td>
      <td>2022-5-7</td>
    </tr>
    
    <tr>
      <td>134504</td>
      <td>1226026</td>
      <td>ZF523SC3BL</td>
      <td>SA78D21897</td>
      <td><a href="http://mnsnt066/cqa/teste_mask.php?filename=134504_ZF523SC3BL_2022-5-7_3.bmp&region_id=1226026&model=SA78D21897&p_x=325&p_y=993&a=354">134504_ZF523SC3BL_2022-5-7_3.bmp</a></td>
      <td>3</td>
      <td>325</td>
      <td>993</td>
      <td>354</td>
      <td>2022-5-7</td>
    </tr>
    
    <tr>
      <td>134505</td>
      <td>1226036</td>
      <td>ZF523SBQ3Q</td>
      <td>SA78D21897</td>
      <td><a href="http://mnsnt066/cqa/teste_mask.php?filename=134505_ZF523SBQ3Q_2022-5-7_3.bmp&region_id=1226036&model=SA78D21897&p_x=354&p_y=1005&a=357">134505_ZF523SBQ3Q_2022-5-7_3.bmp</a></td>
      <td>3</td>
      <td>354</td>
      <td>1005</td>
      <td>357</td>
      <td>2022-5-7</td>
    </tr>
    
    <tr>
      <td>134506</td>
      <td>1226046</td>
      <td>ZF523SC27G</td>
      <td>SA78D21897</td>
      <td><a href="http://mnsnt066/cqa/teste_mask.php?filename=134506_ZF523SC27G_2022-5-7_3.bmp&region_id=1226046&model=SA78D21897&p_x=429&p_y=942&a=356">134506_ZF523SC27G_2022-5-7_3.bmp</a></td>
      <td>3</td>
      <td>429</td>
      <td>942</td>
      <td>356</td>
      <td>2022-5-7</td>
    </tr>
    
    <tr>
      <td>134507</td>
      <td>1226056</td>
      <td>ZF523SC39W</td>
      <td>SA78D21897</td>
      <td><a href="http://mnsnt066/cqa/teste_mask.php?filename=134507_ZF523SC39W_2022-5-7_3.bmp&region_id=1226056&model=SA78D21897&p_x=439&p_y=997&a=10">134507_ZF523SC39W_2022-5-7_3.bmp</a></td>
      <td>3</td>
      <td>439</td>
      <td>997</td>
      <td>10</td>
      <td>2022-5-7</td>
    </tr>
    
    <tr>
      <td>134508</td>
      <td>1226066</td>
      <td>ZF523SC3MC</td>
      <td>SA78D21897</td>
      <td><a href="http://mnsnt066/cqa/teste_mask.php?filename=134508_ZF523SC3MC_2022-5-7_3.bmp&region_id=1226066&model=SA78D21897&p_x=430&p_y=993&a=6">134508_ZF523SC3MC_2022-5-7_3.bmp</a></td>
      <td>3</td>
      <td>430</td>
      <td>993</td>
      <td>6</td>
      <td>2022-5-7</td>
    </tr>
    
    <tr>
      <td>134509</td>
      <td>1226076</td>
      <td>ZF523SC396</td>
      <td>SA78D21897</td>
      <td><a href="http://mnsnt066/cqa/teste_mask.php?filename=134509_ZF523SC396_2022-5-7_3.bmp&region_id=1226076&model=SA78D21897&p_x=421&p_y=989&a=4">134509_ZF523SC396_2022-5-7_3.bmp</a></td>
      <td>3</td>
      <td>421</td>
      <td>989</td>
      <td>4</td>
      <td>2022-5-7</td>
    </tr>
    
    <tr>
      <td>134510</td>
      <td>1226086</td>
      <td>ZF523SC3BP</td>
      <td>SA78D21897</td>
      <td><a href="http://mnsnt066/cqa/teste_mask.php?filename=134510_ZF523SC3BP_2022-5-7_3.bmp&region_id=1226086&model=SA78D21897&p_x=593&p_y=1042&a=7">134510_ZF523SC3BP_2022-5-7_3.bmp</a></td>
      <td>3</td>
      <td>593</td>
      <td>1042</td>
      <td>7</td>
      <td>2022-5-7</td>
    </tr>
    
    <tr>
      <td>134511</td>
      <td>1226096</td>
      <td>ZF523SBQPK</td>
      <td>SA78D21897</td>
      <td><a href="http://mnsnt066/cqa/teste_mask.php?filename=134511_ZF523SBQPK_2022-5-7_3.bmp&region_id=1226096&model=SA78D21897&p_x=417&p_y=911&a=359">134511_ZF523SBQPK_2022-5-7_3.bmp</a></td>
      <td>3</td>
      <td>417</td>
      <td>911</td>
      <td>359</td>
      <td>2022-5-7</td>
    </tr>
    
    <tr>
      <td>134512</td>
      <td>1226106</td>
      <td>ZF523SBTRK</td>
      <td>SA78D21897</td>
      <td><a href="http://mnsnt066/cqa/teste_mask.php?filename=134512_ZF523SBTRK_2022-5-7_3.bmp&region_id=1226106&model=SA78D21897&p_x=308&p_y=1034&a=358">134512_ZF523SBTRK_2022-5-7_3.bmp</a></td>
      <td>3</td>
      <td>308</td>
      <td>1034</td>
      <td>358</td>
      <td>2022-5-7</td>
    </tr>
    
    <tr>
      <td>134513</td>
      <td>1226116</td>
      <td>ZF523SC394</td>
      <td>SA78D21897</td>
      <td><a href="http://mnsnt066/cqa/teste_mask.php?filename=134513_ZF523SC394_2022-5-7_3.bmp&region_id=1226116&model=SA78D21897&p_x=503&p_y=855&a=357">134513_ZF523SC394_2022-5-7_3.bmp</a></td>
      <td>3</td>
      <td>503</td>
      <td>855</td>
      <td>357</td>
      <td>2022-5-7</td>
    </tr>
    
    <tr>
      <td>134514</td>
      <td>1226126</td>
      <td>ZF523SC38J</td>
      <td>SA78D21897</td>
      <td><a href="http://mnsnt066/cqa/teste_mask.php?filename=134514_ZF523SC38J_2022-5-7_3.bmp&region_id=1226126&model=SA78D21897&p_x=529&p_y=949&a=354">134514_ZF523SC38J_2022-5-7_3.bmp</a></td>
      <td>3</td>
      <td>529</td>
      <td>949</td>
      <td>354</td>
      <td>2022-5-7</td>
    </tr>
    
    <tr>
      <td>134515</td>
      <td>1226136</td>
      <td>ZF523SBQXJ</td>
      <td>SA78D21897</td>
      <td><a href="http://mnsnt066/cqa/teste_mask.php?filename=134515_ZF523SBQXJ_2022-5-7_3.bmp&region_id=1226136&model=SA78D21897&p_x=467&p_y=1172&a=14">134515_ZF523SBQXJ_2022-5-7_3.bmp</a></td>
      <td>3</td>
      <td>467</td>
      <td>1172</td>
      <td>14</td>
      <td>2022-5-7</td>
    </tr>
    
    <tr>
      <td>134516</td>
      <td>1226146</td>
      <td>ZF523SC394</td>
      <td>SA78D21897</td>
      <td><a href="http://mnsnt066/cqa/teste_mask.php?filename=134516_ZF523SC394_2022-5-7_3.bmp&region_id=1226146&model=SA78D21897&p_x=513&p_y=857&a=357">134516_ZF523SC394_2022-5-7_3.bmp</a></td>
      <td>3</td>
      <td>513</td>
      <td>857</td>
      <td>357</td>
      <td>2022-5-7</td>
    </tr>
    
    <tr>
      <td>134517</td>
      <td>1226156</td>
      <td>ZF523SC394</td>
      <td>SA78D21897</td>
      <td><a href="http://mnsnt066/cqa/teste_mask.php?filename=134517_ZF523SC394_2022-5-7_3.bmp&region_id=1226156&model=SA78D21897&p_x=512&p_y=857&a=357">134517_ZF523SC394_2022-5-7_3.bmp</a></td>
      <td>3</td>
      <td>512</td>
      <td>857</td>
      <td>357</td>
      <td>2022-5-7</td>
    </tr>
    
    <tr>
      <td>134518</td>
      <td>1226166</td>
      <td>ZF523SC394</td>
      <td>SA78D21897</td>
      <td><a href="http://mnsnt066/cqa/teste_mask.php?filename=134518_ZF523SC394_2022-5-7_3.bmp&region_id=1226166&model=SA78D21897&p_x=505&p_y=854&a=357">134518_ZF523SC394_2022-5-7_3.bmp</a></td>
      <td>3</td>
      <td>505</td>
      <td>854</td>
      <td>357</td>
      <td>2022-5-7</td>
    </tr>
    
    <tr>
      <td>134519</td>
      <td>1226176</td>
      <td>ZF523SBTRK</td>
      <td>SA78D21897</td>
      <td><a href="http://mnsnt066/cqa/teste_mask.php?filename=134519_ZF523SBTRK_2022-5-7_3.bmp&region_id=1226176&model=SA78D21897&p_x=319&p_y=1177&a=9">134519_ZF523SBTRK_2022-5-7_3.bmp</a></td>
      <td>3</td>
      <td>319</td>
      <td>1177</td>
      <td>9</td>
      <td>2022-5-7</td>
    </tr>
    
    <tr>
      <td>134520</td>
      <td>1226186</td>
      <td>ZF523SC3BP</td>
      <td>SA78D21897</td>
      <td><a href="http://mnsnt066/cqa/teste_mask.php?filename=134520_ZF523SC3BP_2022-5-7_3.bmp&region_id=1226186&model=SA78D21897&p_x=601&p_y=1044&a=8">134520_ZF523SC3BP_2022-5-7_3.bmp</a></td>
      <td>3</td>
      <td>601</td>
      <td>1044</td>
      <td>8</td>
      <td>2022-5-7</td>
    </tr>
    
    <tr>
      <td>134521</td>
      <td>1226196</td>
      <td>ZF523SBQXJ</td>
      <td>SA78D21897</td>
      <td><a href="http://mnsnt066/cqa/teste_mask.php?filename=134521_ZF523SBQXJ_2022-5-7_3.bmp&region_id=1226196&model=SA78D21897&p_x=434&p_y=917&a=3">134521_ZF523SBQXJ_2022-5-7_3.bmp</a></td>
      <td>3</td>
      <td>434</td>
      <td>917</td>
      <td>3</td>
      <td>2022-5-7</td>
    </tr>
    
    <tr>
      <td>134522</td>
      <td>1226206</td>
      <td>ZF523SC38J</td>
      <td>SA78D21897</td>
      <td><a href="http://mnsnt066/cqa/teste_mask.php?filename=134522_ZF523SC38J_2022-5-7_3.bmp&region_id=1226206&model=SA78D21897&p_x=334&p_y=1137&a=5">134522_ZF523SC38J_2022-5-7_3.bmp</a></td>
      <td>3</td>
      <td>334</td>
      <td>1137</td>
      <td>5</td>
      <td>2022-5-7</td>
    </tr>
    
    <tr>
      <td>134523</td>
      <td>1226216</td>
      <td>ZF523SBWW5</td>
      <td>SA78D21897</td>
      <td><a href="http://mnsnt066/cqa/teste_mask.php?filename=134523_ZF523SBWW5_2022-5-7_3.bmp&region_id=1226216&model=SA78D21897&p_x=1054&p_y=1012&a=354">134523_ZF523SBWW5_2022-5-7_3.bmp</a></td>
      <td>3</td>
      <td>1054</td>
      <td>1012</td>
      <td>354</td>
      <td>2022-5-7</td>
    </tr>
    
    <tr>
      <td>134525</td>
      <td>1226236</td>
      <td>ZF523SC393</td>
      <td>SA78D21897</td>
      <td><a href="http://mnsnt066/cqa/teste_mask.php?filename=134525_ZF523SC393_2022-5-7_3.bmp&region_id=1226236&model=SA78D21897&p_x=1059&p_y=932&a=4">134525_ZF523SC393_2022-5-7_3.bmp</a></td>
      <td>3</td>
      <td>1059</td>
      <td>932</td>
      <td>4</td>
      <td>2022-5-7</td>
    </tr>
    
    <tr>
      <td>134526</td>
      <td>1226246</td>
      <td>ZF523SC393</td>
      <td>SA78D21897</td>
      <td><a href="http://mnsnt066/cqa/teste_mask.php?filename=134526_ZF523SC393_2022-5-7_3.bmp&region_id=1226246&model=SA78D21897&p_x=103&p_y=1018&a=4">134526_ZF523SC393_2022-5-7_3.bmp</a></td>
      <td>3</td>
      <td>103</td>
      <td>1018</td>
      <td>4</td>
      <td>2022-5-7</td>
    </tr>
    
    <tr>
      <td>134527</td>
      <td>1226256</td>
      <td>ZF523SC393</td>
      <td>SA78D21897</td>
      <td><a href="http://mnsnt066/cqa/teste_mask.php?filename=134527_ZF523SC393_2022-5-7_3.bmp&region_id=1226256&model=SA78D21897&p_x=1166&p_y=930&a=5">134527_ZF523SC393_2022-5-7_3.bmp</a></td>
      <td>3</td>
      <td>1166</td>
      <td>930</td>
      <td>5</td>
      <td>2022-5-7</td>
    </tr>
    
    <tr>
      <td>134532</td>
      <td>1226306</td>
      <td>ZF523SBQXC</td>
      <td>SA78D21897</td>
      <td><a href="http://mnsnt066/cqa/teste_mask.php?filename=134532_ZF523SBQXC_2022-5-7_3.bmp&region_id=1226306&model=SA78D21897&p_x=265&p_y=780&a=353">134532_ZF523SBQXC_2022-5-7_3.bmp</a></td>
      <td>3</td>
      <td>265</td>
      <td>780</td>
      <td>353</td>
      <td>2022-5-7</td>
    </tr>
    
    <tr>
      <td>134533</td>
      <td>1226316</td>
      <td>ZF523SBQK3</td>
      <td>SA78D21897</td>
      <td><a href="http://mnsnt066/cqa/teste_mask.php?filename=134533_ZF523SBQK3_2022-5-7_3.bmp&region_id=1226316&model=SA78D21897&p_x=89&p_y=1172&a=8">134533_ZF523SBQK3_2022-5-7_3.bmp</a></td>
      <td>3</td>
      <td>89</td>
      <td>1172</td>
      <td>8</td>
      <td>2022-5-7</td>
    </tr>
    
    <tr>
      <td>134534</td>
      <td>1226326</td>
      <td>ZF523SLZZ9</td>
      <td>SA78D21897</td>
      <td><a href="http://mnsnt066/cqa/teste_mask.php?filename=134534_ZF523SLZZ9_2022-5-7_3.bmp&region_id=1226326&model=SA78D21897&p_x=242&p_y=938&a=3">134534_ZF523SLZZ9_2022-5-7_3.bmp</a></td>
      <td>3</td>
      <td>242</td>
      <td>938</td>
      <td>3</td>
      <td>2022-5-7</td>
    </tr>
    
    <tr>
      <td>134535</td>
      <td>1226336</td>
      <td>ZF523SC3CZ</td>
      <td>SA78D21897</td>
      <td><a href="http://mnsnt066/cqa/teste_mask.php?filename=134535_ZF523SC3CZ_2022-5-7_3.bmp&region_id=1226336&model=SA78D21897&p_x=562&p_y=926&a=358">134535_ZF523SC3CZ_2022-5-7_3.bmp</a></td>
      <td>3</td>
      <td>562</td>
      <td>926</td>
      <td>358</td>
      <td>2022-5-7</td>
    </tr>
    
    <tr>
      <td>134536</td>
      <td>1226346</td>
      <td>ZF523SBQWP</td>
      <td>SA78D21897</td>
      <td><a href="http://mnsnt066/cqa/teste_mask.php?filename=134536_ZF523SBQWP_2022-5-7_3.bmp&region_id=1226346&model=SA78D21897&p_x=995&p_y=1126&a=1">134536_ZF523SBQWP_2022-5-7_3.bmp</a></td>
      <td>3</td>
      <td>995</td>
      <td>1126</td>
      <td>1</td>
      <td>2022-5-7</td>
    </tr>
    
    <tr>
      <td>134537</td>
      <td>1226356</td>
      <td>ZF523SC3F4</td>
      <td>SA78D21897</td>
      <td><a href="http://mnsnt066/cqa/teste_mask.php?filename=134537_ZF523SC3F4_2022-5-7_3.bmp&region_id=1226356&model=SA78D21897&p_x=293&p_y=1062&a=359">134537_ZF523SC3F4_2022-5-7_3.bmp</a></td>
      <td>3</td>
      <td>293</td>
      <td>1062</td>
      <td>359</td>
      <td>2022-5-7</td>
    </tr>
    
    <tr>
      <td>134539</td>
      <td>1226376</td>
      <td>ZF523SBQTZ</td>
      <td>SA78D21897</td>
      <td><a href="http://mnsnt066/cqa/teste_mask.php?filename=134539_ZF523SBQTZ_2022-5-7_3.bmp&region_id=1226376&model=SA78D21897&p_x=257&p_y=1135&a=10">134539_ZF523SBQTZ_2022-5-7_3.bmp</a></td>
      <td>3</td>
      <td>257</td>
      <td>1135</td>
      <td>10</td>
      <td>2022-5-7</td>
    </tr>
    
    <tr>
      <td>134540</td>
      <td>1226386</td>
      <td>ZF523SBTGD</td>
      <td>SA78D21897</td>
      <td><a href="http://mnsnt066/cqa/teste_mask.php?filename=134540_ZF523SBTGD_2022-5-7_3.bmp&region_id=1226386&model=SA78D21897&p_x=153&p_y=959&a=1">134540_ZF523SBTGD_2022-5-7_3.bmp</a></td>
      <td>3</td>
      <td>153</td>
      <td>959</td>
      <td>1</td>
      <td>2022-5-7</td>
    </tr>
    
    <tr>
      <td>134542</td>
      <td>1226406</td>
      <td>ZF523SBWW8</td>
      <td>SA78D21897</td>
      <td><a href="http://mnsnt066/cqa/teste_mask.php?filename=134542_ZF523SBWW8_2022-5-7_3.bmp&region_id=1226406&model=SA78D21897&p_x=319&p_y=931&a=2">134542_ZF523SBWW8_2022-5-7_3.bmp</a></td>
      <td>3</td>
      <td>319</td>
      <td>931</td>
      <td>2</td>
      <td>2022-5-7</td>
    </tr>
    
    <tr>
      <td>134543</td>
      <td>1226416</td>
      <td>ZF523SC2HD</td>
      <td>SA78D21897</td>
      <td><a href="http://mnsnt066/cqa/teste_mask.php?filename=134543_ZF523SC2HD_2022-5-7_3.bmp&region_id=1226416&model=SA78D21897&p_x=199&p_y=1084&a=4">134543_ZF523SC2HD_2022-5-7_3.bmp</a></td>
      <td>3</td>
      <td>199</td>
      <td>1084</td>
      <td>4</td>
      <td>2022-5-7</td>
    </tr>
    
    <tr>
      <td>134546</td>
      <td>1226446</td>
      <td>ZF523SC38R</td>
      <td>SA78D21897</td>
      <td><a href="http://mnsnt066/cqa/teste_mask.php?filename=134546_ZF523SC38R_2022-5-7_3.bmp&region_id=1226446&model=SA78D21897&p_x=245&p_y=1068&a=350">134546_ZF523SC38R_2022-5-7_3.bmp</a></td>
      <td>3</td>
      <td>245</td>
      <td>1068</td>
      <td>350</td>
      <td>2022-5-7</td>
    </tr>
    
    <tr>
      <td>134547</td>
      <td>1226456</td>
      <td>ZF523SLZW6</td>
      <td>SA78D21897</td>
      <td><a href="http://mnsnt066/cqa/teste_mask.php?filename=134547_ZF523SLZW6_2022-5-7_3.bmp&region_id=1226456&model=SA78D21897&p_x=471&p_y=1161&a=2">134547_ZF523SLZW6_2022-5-7_3.bmp</a></td>
      <td>3</td>
      <td>471</td>
      <td>1161</td>
      <td>2</td>
      <td>2022-5-7</td>
    </tr>
    
    <tr>
      <td>134548</td>
      <td>1226466</td>
      <td>ZF523SBQRK</td>
      <td>SA78D21897</td>
      <td><a href="http://mnsnt066/cqa/teste_mask.php?filename=134548_ZF523SBQRK_2022-5-7_3.bmp&region_id=1226466&model=SA78D21897&p_x=537&p_y=895&a=358">134548_ZF523SBQRK_2022-5-7_3.bmp</a></td>
      <td>3</td>
      <td>537</td>
      <td>895</td>
      <td>358</td>
      <td>2022-5-7</td>
    </tr>
    
    <tr>
      <td>134550</td>
      <td>1226486</td>
      <td>ZF523SC3FH</td>
      <td>SA78D21897</td>
      <td><a href="http://mnsnt066/cqa/teste_mask.php?filename=134550_ZF523SC3FH_2022-5-7_3.bmp&region_id=1226486&model=SA78D21897&p_x=584&p_y=856&a=358">134550_ZF523SC3FH_2022-5-7_3.bmp</a></td>
      <td>3</td>
      <td>584</td>
      <td>856</td>
      <td>358</td>
      <td>2022-5-7</td>
    </tr>
    
    <tr>
      <td>134551</td>
      <td>1226496</td>
      <td>ZF523SH2LQ</td>
      <td>SA78D21897</td>
      <td><a href="http://mnsnt066/cqa/teste_mask.php?filename=134551_ZF523SH2LQ_2022-5-7_3.bmp&region_id=1226496&model=SA78D21897&p_x=472&p_y=977&a=9">134551_ZF523SH2LQ_2022-5-7_3.bmp</a></td>
      <td>3</td>
      <td>472</td>
      <td>977</td>
      <td>9</td>
      <td>2022-5-7</td>
    </tr>
    
    <tr>
      <td>134553</td>
      <td>1226516</td>
      <td>ZF523SC2HD</td>
      <td>SA78D21897</td>
      <td><a href="http://mnsnt066/cqa/teste_mask.php?filename=134553_ZF523SC2HD_2022-5-7_3.bmp&region_id=1226516&model=SA78D21897&p_x=861&p_y=1033&a=4">134553_ZF523SC2HD_2022-5-7_3.bmp</a></td>
      <td>3</td>
      <td>861</td>
      <td>1033</td>
      <td>4</td>
      <td>2022-5-7</td>
    </tr>
    
    <tr>
      <td>134554</td>
      <td>1226526</td>
      <td>ZF523SH2LQ</td>
      <td>SA78D21897</td>
      <td><a href="http://mnsnt066/cqa/teste_mask.php?filename=134554_ZF523SH2LQ_2022-5-7_3.bmp&region_id=1226526&model=SA78D21897&p_x=468&p_y=976&a=9">134554_ZF523SH2LQ_2022-5-7_3.bmp</a></td>
      <td>3</td>
      <td>468</td>
      <td>976</td>
      <td>9</td>
      <td>2022-5-7</td>
    </tr>
    
    <tr>
      <td>134556</td>
      <td>1226546</td>
      <td>ZF523SC38X</td>
      <td>SA78D21897</td>
      <td><a href="http://mnsnt066/cqa/teste_mask.php?filename=134556_ZF523SC38X_2022-5-7_3.bmp&region_id=1226546&model=SA78D21897&p_x=362&p_y=899&a=355">134556_ZF523SC38X_2022-5-7_3.bmp</a></td>
      <td>3</td>
      <td>362</td>
      <td>899</td>
      <td>355</td>
      <td>2022-5-7</td>
    </tr>
    
    <tr>
      <td>134557</td>
      <td>1226556</td>
      <td>ZF523SBQRB</td>
      <td>SA78D21897</td>
      <td><a href="http://mnsnt066/cqa/teste_mask.php?filename=134557_ZF523SBQRB_2022-5-7_3.bmp&region_id=1226556&model=SA78D21897&p_x=71&p_y=911&a=1">134557_ZF523SBQRB_2022-5-7_3.bmp</a></td>
      <td>3</td>
      <td>71</td>
      <td>911</td>
      <td>1</td>
      <td>2022-5-7</td>
    </tr>
    
    <tr>
      <td>134558</td>
      <td>1226566</td>
      <td>ZF523SLZVK</td>
      <td>SA78D21897</td>
      <td><a href="http://mnsnt066/cqa/teste_mask.php?filename=134558_ZF523SLZVK_2022-5-7_3.bmp&region_id=1226566&model=SA78D21897&p_x=354&p_y=897&a=1">134558_ZF523SLZVK_2022-5-7_3.bmp</a></td>
      <td>3</td>
      <td>354</td>
      <td>897</td>
      <td>1</td>
      <td>2022-5-7</td>
    </tr>
    
    <tr>
      <td>134559</td>
      <td>1226576</td>
      <td>ZF523SC3D7</td>
      <td>SA78D21897</td>
      <td><a href="http://mnsnt066/cqa/teste_mask.php?filename=134559_ZF523SC3D7_2022-5-7_3.bmp&region_id=1226576&model=SA78D21897&p_x=478&p_y=1012&a=4">134559_ZF523SC3D7_2022-5-7_3.bmp</a></td>
      <td>3</td>
      <td>478</td>
      <td>1012</td>
      <td>4</td>
      <td>2022-5-7</td>
    </tr>
    
    <tr>
      <td>134560</td>
      <td>1226586</td>
      <td>ZF523SC3LK</td>
      <td>SA78D21897</td>
      <td><a href="http://mnsnt066/cqa/teste_mask.php?filename=134560_ZF523SC3LK_2022-5-7_3.bmp&region_id=1226586&model=SA78D21897&p_x=538&p_y=1045&a=358">134560_ZF523SC3LK_2022-5-7_3.bmp</a></td>
      <td>3</td>
      <td>538</td>
      <td>1045</td>
      <td>358</td>
      <td>2022-5-7</td>
    </tr>
    
    <tr>
      <td>134561</td>
      <td>1226596</td>
      <td>ZF523SLZSR</td>
      <td>SA78D21897</td>
      <td><a href="http://mnsnt066/cqa/teste_mask.php?filename=134561_ZF523SLZSR_2022-5-7_3.bmp&region_id=1226596&model=SA78D21897&p_x=613&p_y=872&a=359">134561_ZF523SLZSR_2022-5-7_3.bmp</a></td>
      <td>3</td>
      <td>613</td>
      <td>872</td>
      <td>359</td>
      <td>2022-5-7</td>
    </tr>
    
    <tr>
      <td>134562</td>
      <td>1226606</td>
      <td>ZF523SLZQZ</td>
      <td>SA78D21897</td>
      <td><a href="http://mnsnt066/cqa/teste_mask.php?filename=134562_ZF523SLZQZ_2022-5-7_3.bmp&region_id=1226606&model=SA78D21897&p_x=404&p_y=891&a=4">134562_ZF523SLZQZ_2022-5-7_3.bmp</a></td>
      <td>3</td>
      <td>404</td>
      <td>891</td>
      <td>4</td>
      <td>2022-5-7</td>
    </tr>
    
    <tr>
      <td>134563</td>
      <td>1226616</td>
      <td>ZF523SC3FJ</td>
      <td>SA78D21897</td>
      <td><a href="http://mnsnt066/cqa/teste_mask.php?filename=134563_ZF523SC3FJ_2022-5-7_3.bmp&region_id=1226616&model=SA78D21897&p_x=983&p_y=1198&a=2">134563_ZF523SC3FJ_2022-5-7_3.bmp</a></td>
      <td>3</td>
      <td>983</td>
      <td>1198</td>
      <td>2</td>
      <td>2022-5-7</td>
    </tr>
    
    <tr>
      <td>134564</td>
      <td>1226626</td>
      <td>ZF523SC3FJ</td>
      <td>SA78D21897</td>
      <td><a href="http://mnsnt066/cqa/teste_mask.php?filename=134564_ZF523SC3FJ_2022-5-7_3.bmp&region_id=1226626&model=SA78D21897&p_x=386&p_y=1217&a=2">134564_ZF523SC3FJ_2022-5-7_3.bmp</a></td>
      <td>3</td>
      <td>386</td>
      <td>1217</td>
      <td>2</td>
      <td>2022-5-7</td>
    </tr>
    
    <tr>
      <td>134565</td>
      <td>1226636</td>
      <td>ZF523SC3FJ</td>
      <td>SA78D21897</td>
      <td><a href="http://mnsnt066/cqa/teste_mask.php?filename=134565_ZF523SC3FJ_2022-5-7_3.bmp&region_id=1226636&model=SA78D21897&p_x=393&p_y=1207&a=2">134565_ZF523SC3FJ_2022-5-7_3.bmp</a></td>
      <td>3</td>
      <td>393</td>
      <td>1207</td>
      <td>2</td>
      <td>2022-5-7</td>
    </tr>
    
    <tr>
      <td>134566</td>
      <td>1226646</td>
      <td>ZF523SC3FJ</td>
      <td>SA78D21897</td>
      <td><a href="http://mnsnt066/cqa/teste_mask.php?filename=134566_ZF523SC3FJ_2022-5-7_3.bmp&region_id=1226646&model=SA78D21897&p_x=402&p_y=826&a=358">134566_ZF523SC3FJ_2022-5-7_3.bmp</a></td>
      <td>3</td>
      <td>402</td>
      <td>826</td>
      <td>358</td>
      <td>2022-5-7</td>
    </tr>
    
    <tr>
      <td>134567</td>
      <td>1226656</td>
      <td>ZF523SC3F6</td>
      <td>SA78D21897</td>
      <td><a href="http://mnsnt066/cqa/teste_mask.php?filename=134567_ZF523SC3F6_2022-5-7_3.bmp&region_id=1226656&model=SA78D21897&p_x=579&p_y=962&a=2">134567_ZF523SC3F6_2022-5-7_3.bmp</a></td>
      <td>3</td>
      <td>579</td>
      <td>962</td>
      <td>2</td>
      <td>2022-5-7</td>
    </tr>
    
    <tr>
      <td>134568</td>
      <td>1226666</td>
      <td>ZF523SC3F6</td>
      <td>SA78D21897</td>
      <td><a href="http://mnsnt066/cqa/teste_mask.php?filename=134568_ZF523SC3F6_2022-5-7_3.bmp&region_id=1226666&model=SA78D21897&p_x=582&p_y=963&a=2">134568_ZF523SC3F6_2022-5-7_3.bmp</a></td>
      <td>3</td>
      <td>582</td>
      <td>963</td>
      <td>2</td>
      <td>2022-5-7</td>
    </tr>
    
    <tr>
      <td>134569</td>
      <td>1226676</td>
      <td>ZF523SC3F6</td>
      <td>SA78D21897</td>
      <td><a href="http://mnsnt066/cqa/teste_mask.php?filename=134569_ZF523SC3F6_2022-5-7_3.bmp&region_id=1226676&model=SA78D21897&p_x=585&p_y=960&a=2">134569_ZF523SC3F6_2022-5-7_3.bmp</a></td>
      <td>3</td>
      <td>585</td>
      <td>960</td>
      <td>2</td>
      <td>2022-5-7</td>
    </tr>
    
    <tr>
      <td>134570</td>
      <td>1226686</td>
      <td>ZF523SC2LQ</td>
      <td>SA78D21897</td>
      <td><a href="http://mnsnt066/cqa/teste_mask.php?filename=134570_ZF523SC2LQ_2022-5-7_3.bmp&region_id=1226686&model=SA78D21897&p_x=481&p_y=811&a=355">134570_ZF523SC2LQ_2022-5-7_3.bmp</a></td>
      <td>3</td>
      <td>481</td>
      <td>811</td>
      <td>355</td>
      <td>2022-5-7</td>
    </tr>
    
    <tr>
      <td>134571</td>
      <td>1226696</td>
      <td>ZF523SC3B5</td>
      <td>SA78D21897</td>
      <td><a href="http://mnsnt066/cqa/teste_mask.php?filename=134571_ZF523SC3B5_2022-5-7_3.bmp&region_id=1226696&model=SA78D21897&p_x=444&p_y=994&a=1">134571_ZF523SC3B5_2022-5-7_3.bmp</a></td>
      <td>3</td>
      <td>444</td>
      <td>994</td>
      <td>1</td>
      <td>2022-5-7</td>
    </tr>
    
    <tr>
      <td>134572</td>
      <td>1226706</td>
      <td>ZF523SBQR5</td>
      <td>SA78D21897</td>
      <td><a href="http://mnsnt066/cqa/teste_mask.php?filename=134572_ZF523SBQR5_2022-5-7_3.bmp&region_id=1226706&model=SA78D21897&p_x=722&p_y=989&a=359">134572_ZF523SBQR5_2022-5-7_3.bmp</a></td>
      <td>3</td>
      <td>722</td>
      <td>989</td>
      <td>359</td>
      <td>2022-5-7</td>
    </tr>
    
    <tr>
      <td>134574</td>
      <td>1226726</td>
      <td>ZF523SC39Z</td>
      <td>SA78D21897</td>
      <td><a href="http://mnsnt066/cqa/teste_mask.php?filename=134574_ZF523SC39Z_2022-5-7_3.bmp&region_id=1226726&model=SA78D21897&p_x=509&p_y=985&a=3">134574_ZF523SC39Z_2022-5-7_3.bmp</a></td>
      <td>3</td>
      <td>509</td>
      <td>985</td>
      <td>3</td>
      <td>2022-5-7</td>
    </tr>
    
    <tr>
      <td>134575</td>
      <td>1226736</td>
      <td>ZF523SC2KJ</td>
      <td>SA78D21897</td>
      <td><a href="http://mnsnt066/cqa/teste_mask.php?filename=134575_ZF523SC2KJ_2022-5-7_3.bmp&region_id=1226736&model=SA78D21897&p_x=425&p_y=1328&a=17">134575_ZF523SC2KJ_2022-5-7_3.bmp</a></td>
      <td>3</td>
      <td>425</td>
      <td>1328</td>
      <td>17</td>
      <td>2022-5-7</td>
    </tr>
    
    <tr>
      <td>134577</td>
      <td>1226756</td>
      <td>ZF523SC3FX</td>
      <td>SA78D21897</td>
      <td><a href="http://mnsnt066/cqa/teste_mask.php?filename=134577_ZF523SC3FX_2022-5-7_3.bmp&region_id=1226756&model=SA78D21897&p_x=529&p_y=1043&a=351">134577_ZF523SC3FX_2022-5-7_3.bmp</a></td>
      <td>3</td>
      <td>529</td>
      <td>1043</td>
      <td>351</td>
      <td>2022-5-7</td>
    </tr>
    
    <tr>
      <td>134578</td>
      <td>1226766</td>
      <td>ZF523SC3FP</td>
      <td>SA78D21897</td>
      <td><a href="http://mnsnt066/cqa/teste_mask.php?filename=134578_ZF523SC3FP_2022-5-7_3.bmp&region_id=1226766&model=SA78D21897&p_x=597&p_y=855&a=2">134578_ZF523SC3FP_2022-5-7_3.bmp</a></td>
      <td>3</td>
      <td>597</td>
      <td>855</td>
      <td>2</td>
      <td>2022-5-7</td>
    </tr>
    
    <tr>
      <td>134579</td>
      <td>1226776</td>
      <td>ZF523SC3CT</td>
      <td>SA78D21897</td>
      <td><a href="http://mnsnt066/cqa/teste_mask.php?filename=134579_ZF523SC3CT_2022-5-7_3.bmp&region_id=1226776&model=SA78D21897&p_x=451&p_y=931&a=1">134579_ZF523SC3CT_2022-5-7_3.bmp</a></td>
      <td>3</td>
      <td>451</td>
      <td>931</td>
      <td>1</td>
      <td>2022-5-7</td>
    </tr>
    
    <tr>
      <td>134580</td>
      <td>1226786</td>
      <td>ZF523SLZRS</td>
      <td>SA78D21897</td>
      <td><a href="http://mnsnt066/cqa/teste_mask.php?filename=134580_ZF523SLZRS_2022-5-7_3.bmp&region_id=1226786&model=SA78D21897&p_x=514&p_y=857&a=357">134580_ZF523SLZRS_2022-5-7_3.bmp</a></td>
      <td>3</td>
      <td>514</td>
      <td>857</td>
      <td>357</td>
      <td>2022-5-7</td>
    </tr>
    
    <tr>
      <td>134581</td>
      <td>1226796</td>
      <td>ZF523SLZSJ</td>
      <td>SA78D21897</td>
      <td><a href="http://mnsnt066/cqa/teste_mask.php?filename=134581_ZF523SLZSJ_2022-5-7_3.bmp&region_id=1226796&model=SA78D21897&p_x=474&p_y=934&a=1">134581_ZF523SLZSJ_2022-5-7_3.bmp</a></td>
      <td>3</td>
      <td>474</td>
      <td>934</td>
      <td>1</td>
      <td>2022-5-7</td>
    </tr>
    
    <tr>
      <td>134582</td>
      <td>1226806</td>
      <td>ZF523SC3GB</td>
      <td>SA78D21897</td>
      <td><a href="http://mnsnt066/cqa/teste_mask.php?filename=134582_ZF523SC3GB_2022-5-7_3.bmp&region_id=1226806&model=SA78D21897&p_x=605&p_y=896&a=3">134582_ZF523SC3GB_2022-5-7_3.bmp</a></td>
      <td>3</td>
      <td>605</td>
      <td>896</td>
      <td>3</td>
      <td>2022-5-7</td>
    </tr>
    
    <tr>
      <td>134583</td>
      <td>1226816</td>
      <td>ZF523SBQWM</td>
      <td>SA78D21897</td>
      <td><a href="http://mnsnt066/cqa/teste_mask.php?filename=134583_ZF523SBQWM_2022-5-7_3.bmp&region_id=1226816&model=SA78D21897&p_x=93&p_y=982&a=2">134583_ZF523SBQWM_2022-5-7_3.bmp</a></td>
      <td>3</td>
      <td>93</td>
      <td>982</td>
      <td>2</td>
      <td>2022-5-7</td>
    </tr>
    
    <tr>
      <td>134585</td>
      <td>1226836</td>
      <td>ZF523SLZHN</td>
      <td>SA78D21897</td>
      <td><a href="http://mnsnt066/cqa/teste_mask.php?filename=134585_ZF523SLZHN_2022-5-7_3.bmp&region_id=1226836&model=SA78D21897&p_x=407&p_y=932&a=358">134585_ZF523SLZHN_2022-5-7_3.bmp</a></td>
      <td>3</td>
      <td>407</td>
      <td>932</td>
      <td>358</td>
      <td>2022-5-7</td>
    </tr>
    
    <tr>
      <td>134588</td>
      <td>1226866</td>
      <td>ZF523SLZPH</td>
      <td>SA78D21897</td>
      <td><a href="http://mnsnt066/cqa/teste_mask.php?filename=134588_ZF523SLZPH_2022-5-7_3.bmp&region_id=1226866&model=SA78D21897&p_x=604&p_y=1079&a=9">134588_ZF523SLZPH_2022-5-7_3.bmp</a></td>
      <td>3</td>
      <td>604</td>
      <td>1079</td>
      <td>9</td>
      <td>2022-5-7</td>
    </tr>
    
    <tr>
      <td>134589</td>
      <td>1226876</td>
      <td>ZF523SLZMS</td>
      <td>SA78D21897</td>
      <td><a href="http://mnsnt066/cqa/teste_mask.php?filename=134589_ZF523SLZMS_2022-5-7_3.bmp&region_id=1226876&model=SA78D21897&p_x=595&p_y=912&a=357">134589_ZF523SLZMS_2022-5-7_3.bmp</a></td>
      <td>3</td>
      <td>595</td>
      <td>912</td>
      <td>357</td>
      <td>2022-5-7</td>
    </tr>
    
    <tr>
      <td>134590</td>
      <td>1226886</td>
      <td>ZF523SLZPH</td>
      <td>SA78D21897</td>
      <td><a href="http://mnsnt066/cqa/teste_mask.php?filename=134590_ZF523SLZPH_2022-5-7_3.bmp&region_id=1226886&model=SA78D21897&p_x=604&p_y=886&a=357">134590_ZF523SLZPH_2022-5-7_3.bmp</a></td>
      <td>3</td>
      <td>604</td>
      <td>886</td>
      <td>357</td>
      <td>2022-5-7</td>
    </tr>
    
    <tr>
      <td>134591</td>
      <td>1226896</td>
      <td>ZF523SC3PD</td>
      <td>SA78D21897</td>
      <td><a href="http://mnsnt066/cqa/teste_mask.php?filename=134591_ZF523SC3PD_2022-5-7_3.bmp&region_id=1226896&model=SA78D21897&p_x=512&p_y=902&a=358">134591_ZF523SC3PD_2022-5-7_3.bmp</a></td>
      <td>3</td>
      <td>512</td>
      <td>902</td>
      <td>358</td>
      <td>2022-5-7</td>
    </tr>
    
    <tr>
      <td>134592</td>
      <td>1226906</td>
      <td>ZF523SC3PD</td>
      <td>SA78D21897</td>
      <td><a href="http://mnsnt066/cqa/teste_mask.php?filename=134592_ZF523SC3PD_2022-5-7_3.bmp&region_id=1226906&model=SA78D21897&p_x=516&p_y=905&a=358">134592_ZF523SC3PD_2022-5-7_3.bmp</a></td>
      <td>3</td>
      <td>516</td>
      <td>905</td>
      <td>358</td>
      <td>2022-5-7</td>
    </tr>
    
    <tr>
      <td>134593</td>
      <td>1226916</td>
      <td>ZF523SLZN7</td>
      <td>SA78D21897</td>
      <td><a href="http://mnsnt066/cqa/teste_mask.php?filename=134593_ZF523SLZN7_2022-5-7_3.bmp&region_id=1226916&model=SA78D21897&p_x=547&p_y=1240&a=15">134593_ZF523SLZN7_2022-5-7_3.bmp</a></td>
      <td>3</td>
      <td>547</td>
      <td>1240</td>
      <td>15</td>
      <td>2022-5-7</td>
    </tr>
    
    <tr>
      <td>134594</td>
      <td>1226926</td>
      <td>ZF523SLZVD</td>
      <td>SA78D21897</td>
      <td><a href="http://mnsnt066/cqa/teste_mask.php?filename=134594_ZF523SLZVD_2022-5-7_3.bmp&region_id=1226926&model=SA78D21897&p_x=416&p_y=1094&a=6">134594_ZF523SLZVD_2022-5-7_3.bmp</a></td>
      <td>3</td>
      <td>416</td>
      <td>1094</td>
      <td>6</td>
      <td>2022-5-7</td>
    </tr>
    
    <tr>
      <td>134595</td>
      <td>1226936</td>
      <td>ZF523SLZVD</td>
      <td>SA78D21897</td>
      <td><a href="http://mnsnt066/cqa/teste_mask.php?filename=134595_ZF523SLZVD_2022-5-7_3.bmp&region_id=1226936&model=SA78D21897&p_x=418&p_y=1093&a=6">134595_ZF523SLZVD_2022-5-7_3.bmp</a></td>
      <td>3</td>
      <td>418</td>
      <td>1093</td>
      <td>6</td>
      <td>2022-5-7</td>
    </tr>
    
    <tr>
      <td>134598</td>
      <td>1226966</td>
      <td>ZF523SC3DS</td>
      <td>SA78D21897</td>
      <td><a href="http://mnsnt066/cqa/teste_mask.php?filename=134598_ZF523SC3DS_2022-5-7_3.bmp&region_id=1226966&model=SA78D21897&p_x=467&p_y=893&a=7">134598_ZF523SC3DS_2022-5-7_3.bmp</a></td>
      <td>3</td>
      <td>467</td>
      <td>893</td>
      <td>7</td>
      <td>2022-5-7</td>
    </tr>
    
    <tr>
      <td>134599</td>
      <td>1226976</td>
      <td>ZF523SBQVV</td>
      <td>SA78D21897</td>
      <td><a href="http://mnsnt066/cqa/teste_mask.php?filename=134599_ZF523SBQVV_2022-5-7_3.bmp&region_id=1226976&model=SA78D21897&p_x=625&p_y=1447&a=34">134599_ZF523SBQVV_2022-5-7_3.bmp</a></td>
      <td>3</td>
      <td>625</td>
      <td>1447</td>
      <td>34</td>
      <td>2022-5-7</td>
    </tr>
    
    <tr>
      <td>134601</td>
      <td>1226996</td>
      <td>ZF523SLZNB</td>
      <td>SA78D21897</td>
      <td><a href="http://mnsnt066/cqa/teste_mask.php?filename=134601_ZF523SLZNB_2022-5-7_3.bmp&region_id=1226996&model=SA78D21897&p_x=29&p_y=1053&a=360">134601_ZF523SLZNB_2022-5-7_3.bmp</a></td>
      <td>3</td>
      <td>29</td>
      <td>1053</td>
      <td>360</td>
      <td>2022-5-7</td>
    </tr>
    
    <tr>
      <td>134602</td>
      <td>1227006</td>
      <td>ZF523SLZNB</td>
      <td>SA78D21897</td>
      <td><a href="http://mnsnt066/cqa/teste_mask.php?filename=134602_ZF523SLZNB_2022-5-7_3.bmp&region_id=1227006&model=SA78D21897&p_x=21&p_y=1056&a=360">134602_ZF523SLZNB_2022-5-7_3.bmp</a></td>
      <td>3</td>
      <td>21</td>
      <td>1056</td>
      <td>360</td>
      <td>2022-5-7</td>
    </tr>
    
    <tr>
      <td>134603</td>
      <td>1227016</td>
      <td>ZF523SLZMR</td>
      <td>SA78D21897</td>
      <td><a href="http://mnsnt066/cqa/teste_mask.php?filename=134603_ZF523SLZMR_2022-5-7_3.bmp&region_id=1227016&model=SA78D21897&p_x=647&p_y=1043&a=4">134603_ZF523SLZMR_2022-5-7_3.bmp</a></td>
      <td>3</td>
      <td>647</td>
      <td>1043</td>
      <td>4</td>
      <td>2022-5-7</td>
    </tr>
    
    <tr>
      <td>134604</td>
      <td>1227026</td>
      <td>ZF523SLZRR</td>
      <td>SA78D21897</td>
      <td><a href="http://mnsnt066/cqa/teste_mask.php?filename=134604_ZF523SLZRR_2022-5-7_3.bmp&region_id=1227026&model=SA78D21897&p_x=496&p_y=882&a=2">134604_ZF523SLZRR_2022-5-7_3.bmp</a></td>
      <td>3</td>
      <td>496</td>
      <td>882</td>
      <td>2</td>
      <td>2022-5-7</td>
    </tr>
    
    <tr>
      <td>134605</td>
      <td>1227036</td>
      <td>ZF523SC3FR</td>
      <td>SA78D21897</td>
      <td><a href="http://mnsnt066/cqa/teste_mask.php?filename=134605_ZF523SC3FR_2022-5-7_3.bmp&region_id=1227036&model=SA78D21897&p_x=279&p_y=1106&a=4">134605_ZF523SC3FR_2022-5-7_3.bmp</a></td>
      <td>3</td>
      <td>279</td>
      <td>1106</td>
      <td>4</td>
      <td>2022-5-7</td>
    </tr>
    
    <tr>
      <td>134606</td>
      <td>1227046</td>
      <td>ZF523SC3FR</td>
      <td>SA78D21897</td>
      <td><a href="http://mnsnt066/cqa/teste_mask.php?filename=134606_ZF523SC3FR_2022-5-7_3.bmp&region_id=1227046&model=SA78D21897&p_x=992&p_y=1058&a=3">134606_ZF523SC3FR_2022-5-7_3.bmp</a></td>
      <td>3</td>
      <td>992</td>
      <td>1058</td>
      <td>3</td>
      <td>2022-5-7</td>
    </tr>
    
    <tr>
      <td>134607</td>
      <td>1227056</td>
      <td>ZF523SLZMQ</td>
      <td>SA78D21897</td>
      <td><a href="http://mnsnt066/cqa/teste_mask.php?filename=134607_ZF523SLZMQ_2022-5-7_3.bmp&region_id=1227056&model=SA78D21897&p_x=251&p_y=1010&a=357">134607_ZF523SLZMQ_2022-5-7_3.bmp</a></td>
      <td>3</td>
      <td>251</td>
      <td>1010</td>
      <td>357</td>
      <td>2022-5-7</td>
    </tr>
    