
    <tr>
      <td>124354</td>
      <td>1124898</td>
      <td>ZF523RV9R6</td>
      <td>SA78D21897</td>
      <td><a href="http://mnsnt066/cqa/teste_mask.php?filename=124354_ZF523RV9R6_2022-4-25_3.bmp&region_id=1124898&model=SA78D21897&p_x=599&p_y=1132&a=12">124354_ZF523RV9R6_2022-4-25_3.bmp</a></td>
      <td>3</td>
      <td>599</td>
      <td>1132</td>
      <td>12</td>
      <td>2022-4-25</td>
    </tr>
    
    <tr>
      <td>124355</td>
      <td>1124908</td>
      <td>ZF523RV9R6</td>
      <td>SA78D21897</td>
      <td><a href="http://mnsnt066/cqa/teste_mask.php?filename=124355_ZF523RV9R6_2022-4-25_3.bmp&region_id=1124908&model=SA78D21897&p_x=571&p_y=899&a=357">124355_ZF523RV9R6_2022-4-25_3.bmp</a></td>
      <td>3</td>
      <td>571</td>
      <td>899</td>
      <td>357</td>
      <td>2022-4-25</td>
    </tr>
    
    <tr>
      <td>124356</td>
      <td>1124918</td>
      <td>ZF523RVLMM</td>
      <td>SA78D21897</td>
      <td><a href="http://mnsnt066/cqa/teste_mask.php?filename=124356_ZF523RVLMM_2022-4-25_3.bmp&region_id=1124918&model=SA78D21897&p_x=218&p_y=925&a=357">124356_ZF523RVLMM_2022-4-25_3.bmp</a></td>
      <td>3</td>
      <td>218</td>
      <td>925</td>
      <td>357</td>
      <td>2022-4-25</td>
    </tr>
    
    <tr>
      <td>124357</td>
      <td>1124928</td>
      <td>ZF523RVLMM</td>
      <td>SA78D21897</td>
      <td><a href="http://mnsnt066/cqa/teste_mask.php?filename=124357_ZF523RVLMM_2022-4-25_3.bmp&region_id=1124928&model=SA78D21897&p_x=406&p_y=924&a=357">124357_ZF523RVLMM_2022-4-25_3.bmp</a></td>
      <td>3</td>
      <td>406</td>
      <td>924</td>
      <td>357</td>
      <td>2022-4-25</td>
    </tr>
    
    <tr>
      <td>124358</td>
      <td>1124938</td>
      <td>ZF523RVLMM</td>
      <td>SA78D21897</td>
      <td><a href="http://mnsnt066/cqa/teste_mask.php?filename=124358_ZF523RVLMM_2022-4-25_3.bmp&region_id=1124938&model=SA78D21897&p_x=398&p_y=922&a=357">124358_ZF523RVLMM_2022-4-25_3.bmp</a></td>
      <td>3</td>
      <td>398</td>
      <td>922</td>
      <td>357</td>
      <td>2022-4-25</td>
    </tr>
    
    <tr>
      <td>124359</td>
      <td>1124948</td>
      <td>ZF523RVQ37</td>
      <td>SA78D21897</td>
      <td><a href="http://mnsnt066/cqa/teste_mask.php?filename=124359_ZF523RVQ37_2022-4-25_3.bmp&region_id=1124948&model=SA78D21897&p_x=378&p_y=942&a=360">124359_ZF523RVQ37_2022-4-25_3.bmp</a></td>
      <td>3</td>
      <td>378</td>
      <td>942</td>
      <td>360</td>
      <td>2022-4-25</td>
    </tr>
    